.Xil/Vivado-381472-i83pc38/hw_ila_data_1/zip_work/waveform.vcd
$date
        2024-Jul-04 08:12:12
$end
$version
        Vivado v2022.2 (64-bit)
$end
$timescale
        1ps
$end
$scope module dut $end
$var reg 100 " design_1_i/fulltopHDC_0/U0/HDCOTFGEn/BV [999:900] $end
$var reg 3 (" design_1_i/fulltopHDC_0/U0/HDCOTFGEn/cls/CST/hv [2:0] $end
$var reg 128 +" \design_1_i/fulltopHDC_0/U0/HDCOTFGEn/cls/CST/countSimArr[0].comp/compArr[1].comp/class [127:0] $end
$var reg 1 M# \design_1_i/fulltopHDC_0/U0/HDCOTFGEn/cls/CST/countSimArr[0].comp/compArr[1].comp/hv $end
$var reg 336 N# design_1_i/fulltopHDC_0/U0/HDCOTFGEn/QHV [335:0] $end
$var reg 1 &' design_1_i/fulltopHDC_0/U0/HDCOTFGEn/doneEncoderToClassifier $end
$var reg 1 '' _TRIGGER $end
$var reg 1 (' _WINDOW $end
$var reg 1 )' _GAP $end
$upscope $end
$enddefinitions $end
#0
$dumpvars
b11100111010000111000100011000101010110000100010001011000010001011011111000101000011011000111111100 "
b0 ("
b1111111000011101111111011111000000100000000001000100111111100000111011000001110110101000000011111000100001110111110110000111100 +"
0M#
b0 N#
0&'
0''
1('
0)'
$end
#239
b111001110100001110001000110001010101100001000100010110000100010110111110001010000110110001111111001 "
#240
b1110011101000011100010001100010101011000010001000101100001000101101111100010100001101100011111110010 "
#241
b100011011110000110111100110000111011111111000001110000110100110111010000101001000111000000000001100 "
#242
b1000110111100001101111001100001110111111110000011100001101001101110100001010010001110000000000011001 "
#243
b1001001110110100101101100110110000010000111010111101011110110110001101010100101000000000111111011010 "
#244
b1010111100011110101000110011001101001110101111111111111001000001111111101001011011100001000001011100 "
#245
b1101011001001010100010011000110111110010000101111010110110101110011010010010111100100010111101010000 "
#246
b10010011100010110111001111000010001011010001110000101001110001010001100101110010100101000101001000 "
#247
b100100111000101101110011110000100010110100011100001010011100010100011001011100101001010001010010000 "
#248
b1001001110001011011100111100001000101101000111000010100111000101000110010111001010010100010100100001 "
#249
b1010111101100001001010000110111100110101010100000000001010100111101001101110011111001000010110101010 "
#250
b1101011010110101100111110011010100000101110010000101010001100010110110011100110101110000010010111101 "
#251
b10010100011100111100011000000101100100111110001111100111101000001001111001100000000000011010010010 "
#252
b100101000111001111000110000001011001001111100011111001111010000010011110011000000000000110100100100 "
#253
b1001010001110011110001100000010110010011111000111110011110100000100111100110000000000001101001001001 "
#254
b1010000010010000010000111110000001001000101011111001111001101100101010001100001011100011101101111011 "
#255
b1100100101010111010010000010101111111110001101110110110111110100110001011000011100100111100100011110 "
#256
b1101011011001010111111011110010010011000001101000101011000100000111110000110010101111110111010100 "
#257
b11010110110010101111110111100100100110000011010001010110001000001111100001100101011111101110101000 "
#258
b110101101100101011111101111001001001100000110100010101100010000011111000011001010111111011101010001 "
#259
b1101011011001010111111011110010010011000001101000101011000100000111110000110010101111110111010100010 "
#260
b10010111100010001101000010001001011111000000001111110101101100011001001100100000011101001010101100 "
#261
b100101111000100011010000100010010111110000000011111101011011000110010011001000000111010010101011000 "
#262
b1001011110001000110100001000100101111100000000111111010110110001100100110010000001110100101010110001 "
#263
b1010011101100110011011101111100110010111011011111011101001001110101100100100001000001001101010001011 "
#264
b1100011010111011000100100001100001000001101101110010010110110000111100001000011011110011101011111111 "
#265
b10100000001111010111101101111101100000001100001101001001100011101010000111100000111101000010110 "
#266
b101000000011110101111011011111011000000011000011010010011000111010100001111000001111010000101100 "
#267
b1010000000111101011110110111110110000000110000110100100110001110101000011110000011110100001011001 "
#268
b10100000001111010111101101111101100000001100001101001001100011101010000111100000111101000010110011 "
#269
b101000000011110101111011011111011000000011000011010010011000111010100001111000001111010000101100111 "
#270
b1010000000111101011110110111110110000000110000110100100110001110101000011110000011110100001011001111 "
#271
b1100100000001101001110010001000001101110111011101100001000110000110101111100001100001000101001110110 "
#272
b1100001101101101111011100101110110010101101011101010101001100001110111000010011110001101100000101 "
#273
b11000011011011011110111001011101100101011010111010101010011000011101110000100111100011011000001010 "
#274
b110000110110110111101110010111011001010110101110101010100110000111011100001001111000110110000010101 "
#275
b1100001101101101111011100101110110010101101011101010101001100001110111000010011110001101100000101010 "
#276
b111010101100000100110101000001000100001101010000010111101110001011000100110111111011111110111100 "
#277
b1110101011000001001101010000010001000011010100000101111011100010110001001101111110111111101111000 "
#278
b11101010110000010011010100000100010000110101000001011110111000101100010011011111101111111011110000 "
#279
b111010101100000100110101000001000100001101010000010111101110001011000100110111111011111110111100001 "
#280
b1110101011000001001101010000010001000011010100000101111011100010110001001101111110111111101111000010 "
#281
b101110111110101101001011110001111101001110010001110110011101000000111011011110110011111100001101101 "
#282
b1011101111101011010010111100011111010011100100011101100111010000001110110111101100111111000011011010 "
#283
b1111111110100001010110000110010011001000010010111110001010001101111000101111010010011110111001011100 "
#284
b111011100110101011111110010001011111111111111111001010000110110010100011110101111011101001101010001 "
#285
b1110111001101010111111100100010111111111111111110010100001101100101000111101011110111010011010100010 "
#286
b101010010100010001100110110000010010000100101100000000111110100110100111010110110010100001010101100 "
#287
b1010100101000100011001101100000100100001001011000000001111101001101001110101101100101000010101011001 "
#288
b1101101011111111000000100110100100101101001100000101011011111110110110101011010010110000010101011011 "
#289
b11110110001001110010110011100100110101000010001111110011010000001000010110101110000000010101011110 "
#290
b111101100010011100101100111001001101010000100011111100110100000010000101101011100000000101010111100 "
#291
b1111011000100111001011001110010011010100001000111111001101000000100001011010111000000001010101111000 "
#292
b110010000111001100101100010001011000111001011111011011110101100100111110101111011100010010100011000 "
#293
b1100100001110011001011000100010110001110010111110110111101011001001111101011110111000100101000110000 "
#294
b1100010010001100101110110000001110011110101101000111110011111111010010111100101101001101110001000 "
#295
b11000100100011001011101100000011100111101011010001111100111111110100101111001011010011011100010000 "
#296
b110001001000110010111011000000111001111010110100011111001111111101001011110010110100110111000100001 "
#297
b1100010010001100101110110000001110011110101101000111110011111111010010111100101101001101110001000011 "
#298
b101101110101110011110110001010010000000001010100011010011000000111001010001111011011101101111 "
#299
b1011011101011100111101100010100100000000010101000110100110000001110010100011110110111011011111 "
#300
b10110111010111001111011000101001000000000101010001101001100000011100101000111101101110110111111 "
#301
b101101110101110011110110001010010000000001010100011010011000000111001010001111011011101101111110 "
#302
b1011011101011100111101100010100100000000010101000110100110000001110010100011110110111011011111101 "
#303
b10110111010111001111011000101001000000000101010001101001100000011100101000111101101110110111111010 "
#304
b101101110101110011110110001010010000000001010100011010011000000111001010001111011011101101111110100 "
#305
b1011011101011100111101100010100100000000010101000110100110000001110010100011110110111011011111101001 "
#306
b1110011011001110001000111011100101101111110000001000001000101110000000000111100110010110000000111010 "
#307
b100010111101011100010001001100110110000111010010101010101110001100101001111000111001100111110011100 "
#308
b1000101111010111000100010011001101100001110100101010101011100011001010011110001110011001111100111000 "
#309
b1001111111011001111011011000110110101100110011010000010011101011110001111100010111010011000110011000 "
#310
b1011011111000100000101001111000000110110111100100101100011111010000110111000100101000110110011011000 "
#311
b1110011111111111111001100000101100000010100011001110000011011001101000110001000001101101011001011000 "
#312
b100011110001000000000111111110101101010011100011001000010011110110100100010001000111010001101011000 "
#313
b1000111100010000000001111111101011010100111000110010000100111101101001000100010001110100011010110000 "
#314
b1001011001010111110000000001111011000110101011100001001101010110110111001000101000001000001010001001 "
#315
b1010010011011000010011111101011011100010001101000111011110000000001011010001011011110000101011111011 "
#316
b1100000111000111010100000100011010101011000000001011111000101101110011100010111100000001101000011110 "
#317
b101111111001011011110110011000111001011010010010110101110110000010000101110011100011101111010101 "
#318
b1011111110010110111101100110001110010110100100101101011101100000100001011100111000111011110101011 "
#319
b10111111100101101111011001100011100101101001001011010111011000001000010111001110001110111101010111 "
#320
b101111111001011011110110011000111001011010010010110101110110000010000101110011100011101111010101110 "
#321
b1011111110010110111101100110001110010110100100101101011101100000100001011100111000111011110101011100 "
#322
b1111011101011010001000110010110001000010010011011111111111101100100111111001111010010111010101010001 "
#323
b110011011000011100010011011001111101011111100111010111011110100101010110011111111001110010101001011 "
#324
b1100110110000111000100110110011111010111111001110101110111101001010101100111111110011100101010010111 "
#325
b1001101111001111010010010010011000000101001101110101011111111001110001111110111011001101011000111 "
#326
b10011011110011110100100100100110000001010011011101010111111110011100011111101110110011010110001110 "
#327
b100110111100111101001001001001100000010100110111010101111111100111000111111011101100110101100011101 "
#328
b1001101111001111010010010010011000000101001101110101011111111001110001111110111011001101011000111010 "
#329
b1011111111101001010111011010011101100101000001101111111011011110000110111101111101111010001110011101 "
#330
b1111011110100101011101001010010110100101011001011010110010010001101000111011110000010100100011010011 "
#331
b110011100111101001001101010000000100101101000110000100000001110110100110111101011001001111001001111 "
#332
b1100111001111010010011010100000001001011010001100001000000011101101001101111010110010011110010011110 "
#333
b1010010000011010101010110101111111001111001000111000100010110110110011110100111000111011011010100 "
#334
b10100100000110101010101101011111110011110010001110001000101101101100111101001110001110110110101001 "
#335
b101001000001101010101011010111111100111100100011100010001011011011001111010011100011101101101010011 "
#336
b1010010000011010101010110101111111001111001000111000100010110110110011110100111000111011011010100110 "
#337
b1100000001000010100110010101010011110001001011110100000001000000000010101001111010010110001010100101 "
#338
b100011110010111111010100001010001101001101101101000110101101100000010011111111001100101010100010 "
#339
b1000111100101111110101000010100011010011011011010001101011011000000100111111110011001010101000100 "
#340
b10001111001011111101010000101000110100110110110100011010110110000001001111111100110010101010001001 "
#341
b100011110010111111010100001010001101001101101101000110101101100000010011111111001100101010100010011 "
#342
b1000111100101111110101000010100011010011011011010001101011011000000100111111110011001010101000100110 "
#343
b1001011000101000011001111011101011001001101100100110010010011101101100111111101101110101101110100101 "
#344
b1010010000100111000000001001111011111100000011001001100000010110111100111111010000001011100010100010 "
#345
b1100000000111001110011101101011010010111011100010110000100000000011100111110101011110111111010101100 "
#346
b100000000100010100100100011001000001100010101001001100101101011100111101011100001111001010110001 "
#347
b1000000001000101001001000110010000011000101010010011001011010111001111010111000011110010101100011 "
#348
b10000000010001010010010001100100000110001010100100110010110101110011110101110000111100101011000111 "
#349
b100000000100010100100100011001000001100010101001001100101101011100111101011100001111001010110001111 "
#350
b1000000001000101001001000110010000011000101010010011001011010111001111010111000011110010101100011111 "
#351
b1000100011111101100001110010001101011110001110100011010010000011111011101110001100000101100111010111 "
#352
b1001100110001100110000011010110111010011000111000011100000101010010010011100010011101011110001000111 "
#353
b1011101101101110010011001011000011001001010100000010000101111001000001111000101100110111011101100110 "
#354
b1111111010101011010101101000101011111101110010000001001111011111100110110001010010001110000100100100 "
#355
b111010100100001011000101111111010010100111110000111011010010010101000100010101111111100110110100000 "
#356
b1110101001000010110001011111110100101001111100001110110100100101010001000101011111111001101101000001 "
#357
b101110011110010010001000001000100111100100010011000101101100111000111001010110100010011100101101010 "
#358
b1011100111100100100010000010001001111001000100110001011011001110001110010101101000100111001011010101 "
#359
b1111101110111110110111111010111110011101010011100111110010110001111001101011011010101110101001000010 "
#360
b111111100001010011100001011010001010101111101001010100001001110010110010110111110111101101101101101 "
#361
b1111111000010100111000010110100010101011111010010101000010011100101100101101111101111011011011011010 "
#362
b111010001011110000011010011101000111000101110101111000000010100111100011011110000010110001001011101 "
#363
b1110100010111100000110100111010001110001011101011110000000101001111000110111100000101100010010111010 "
#364
b101100100001111111110110000001110001101100000111001000101111110010100101111001010111000011010011100 "
#365
b1011001000011111111101100000011100011011000001110010001011111100101001011110010101110000110100111001 "
#366
b1110110001001000001000111110010101011001011001100001010011010100110111111100100000000001010110011011 "
#367
b101000011100111100010000010000111011101101001000111100010000100001010111001001011100010010011011111 "
#368
b1010000111001111000100000100001110111011010010001111000100001000010101110010010111000100100110111110 "
#369
b1100101111101001111011110110110000011001111110011011001100111101001110100100100101101001110010010100 "
#370
b1111110100100000100010011001101011100100110110011011101010111111000001001000000110011011011000001 "
#371
b11111101001000001000100110011010111001001101100110111010101111110000010010000001100110110110000010 "
#372
b111111010010000010001001100110101110010011011001101110101011111100000100100000011001101101100000101 "
#373
b1111110100100000100010011001101011100100110110011011101010111111000001001000000110011011011000001011 "
#374
b111001000110110110111001101111010100110110110110010010001010011100111010000000111010110001111111110 "
#375
b1110010001101101101110011011110101001101101101100100100010100111001110100000001110101100011111111100 "
#376
b100000010101100101111001001000111110100000001001100000001100011111000000000010110111000000000010000 "
#377
b1000000101011001011110010010001111101000000010011000000011000111110000000000101101110000000000100000 "
#378
b1000101011000101001111011010110010111111011110110101000010100010000101000001010000000000111110101000 "
#379
b1001110111111101101101001011001000010001100111101111000001101001101111000010101011100001000010111000 "
#380
b1011001110001100101001101000111101001100010101011011000111111110111011000101011100100010111010011001 "
#381
b1110111101101110100000101111010111110111110000110011001011010000010011001010110010100101001011011011 "
#382
b101011010101010110010100000000010000000111011100011010010001101000011010101101110101010101001011110 "
#383
b1010110101010101100101000000000100000001110111000110100100011010000110101011011101010101010010111100 "
#384
b1101001011011100111001111110100101101100110100001000001100011001101000010110110001001010011010010001 "
#385
b10110111001110000000000011100110110110110010010101011100011110110101101101101001110100001011001011 "
#386
b101101110011100000000000111001101101101100100101010111000111101101011011011010011101000010110010110 "
#387
b1011011100111000000000001110011011011011001001010101110001111011010110110110100111010000101100101100 "
#388
b1110011000000111110011100010011011011001001000101110100111011011001000101101000101000001100110110001 "
#389
b100010001111000010100111010011011011101001011011000001010011011110100011010000001100011110010001011 "
#390
b1000100011110000101001110100110110111010010110110000010100110111101000110100000011000111100100010110 "
#391
b1001100110010110100000010111000000011011110111100101101101000010110100101000001101101111110111000100 "
#392
b1011101101011010110011010000101101011000110101001110011110101000001100010000010000111111010001100001 "
#393
b1111111011000010010101011111110111011110110000011001111001111101111101100000101010011110011100101010 "
#394
b111010111110011011001000001000011010010111010110110110111010110011110000001011111011100000110111101 "
#395
b1110101111100110110010000010000110100101110101101101101110101100111100000010111110111000001101111010 "
#396
b101111110111010010111111010100000100100110001011110011001110100011101000101110110010000100100011101 "
#397
b1011111101110100101111110101000001001001100010111100110011101000111010001011101100100001001000111010 "
#398
b1111011010011110101100010100101111111100011111111100100011111100010001010111010010100010101110011101 "
#399
b110010101001010101011010111110010010111100101111100000011010101000111101110101110100101100011010011 "
#400
b1100101010010101010110101111100100101111001011111000000110101010001111011101011101001011000110100111 "
#401
b1110101011101011110100001100100110001001101110101001001111001111011111010110001110110110010100111 "
#402
b11101010111010111101000011001001100010011011101010010011110011110111110101100011101101100101001111 "
#403
b111010101110101111010000110010011000100110111010100100111100111101111101011000111011011001010011110 "
#404
b1110101011101011110100001100100110001001101110101001001111001111011111010110001110110110010100111100 "
#405
b101110110100000011011100111100001111100000111010111011010110011011011101100010110001100010110010001 "
#406
b1011101101000000110111001111000011111000001110101110110101100110110111011000101100011000101100100011 "
#407
b1111111011110110011101100000101010011111000111011000101111100000001011110001010011010001100110101111 "
#408
b111010110011011001000111111111001010001010100110100011011101101110010100010101101000011110010110110 "
#409
b1110101100110110010001111111110010100010101001101000110111011011100101000101011010000111100101101101 "
#410
b101111000011011010000000001001000101010001001010100101010011010101111001010111111101111110100110011 "
#411
b1011110000110110100000000010010001010100010010101001010100110101011110010101111111011111101001100110 "
#412
b1111000000011010110011111010001111000111111111010111101101000111011001101011110101011111101100100100 "
#413
b110100001000010010100001010110011100000100100101010011110100011010110010111100001011111100110100000 "
#414
b1101000010000100101000010101100111000001001001010100111101000110101100101111000010111111001101000000 "
#415
b10100101111110100011010101100011101101001000101100111110100000111100011110001110011110100101101001 "
#416
b101001011111101000110101011000111011010010001011001111101000001111000111100011100111101001011010011 "
#417
b1010010111111010001101010110001110110100100010110011111010000011110001111000111001111010010110100110 "
#418
b1100001110000011101001010010110000000110011111100010110000101010000110110001111000010100010010100100 "
#419
b111101110000100001011011001101100011100101000000100101111001101000100011111011001000011010100000 "
#420
b1111011100001000010110110011011000111001010000001001011110011010001000111110110010000110101000000 "
#421
b11110111000010000101101100110110001110010100000010010111100110100010001111101100100001101010000001 "
#422
b111101110000100001011011001101100011100101000000100101111001101000100011111011001000011010100000011 "
#423
b1111011100001000010110110011011000111001010000001001011110011010001000111110110010000110101000000110 "
#424
b110011001100111011110011000011100011101111010010111111000011001110100111101101111101101101111100100 "
#425
b1100110011001110111100110000111000111011110100101111110000110011101001111011011111011011011111001001 "
#426
b1000111101010001010011111011100011000110011011010100101001010110110110110110101010110000001111010 "
#427
b10001111010100010100111110111000110001100110110101001010010101101101101101101010101100000011110101 "
#428
b100011110101000101001111101110001100011001101101010010100101011011011011011010101011000000111101011 "
#429
b1000111101010001010011111011100011000110011011010100101001010110110110110110101010110000001111010111 "
#430
b1001011011010101010100001001101011100011101100101100010110000000001000101101011110000000100001000111 "
#431
b1010010111011101011011101101111010101000000011011101101000101101110100011010110111100001111101100111 "
#432
b1100001111001101000100100101011000111111011100111110010101110110001101110101100100100011000100100111 "
#433
b111111101101111010110100011100010001100011111001101111000001111110101011000010100110110110100110 "
#434
b1111111011011110101101000111000100011000111110011011110000011111101010110000101001101101101001101 "
#435
b11111110110111101011010001110001000110001111100110111100000111111010101100001010011011011010011011 "
#436
b111111101101111010110100011100010001100011111001101111000001111110101011000010100110110110100110110 "
#437
b1111111011011110101101000111000100011000111110011011110000011111101010110000101001101101101001101101 "
#438
b111010111001010101001110000100101011110100110110010100100010010110000100001011000111011101100110010 "
#439
b1110101110010101010011100001001010111101001101100101001000100101100001000010110001110111011001100100 "
#440
b101111101011101010100111100111000010101000001001111010101100110100111000101101000001110001100100000 "
#441
b1011111010111010101001111001110000101010000010011110101011001101001110001011010000011100011001000001 "
#442
b1111010100000010100000001101001100111011011110111000010010110111111001010110101011011000001101101010 "
#443
b110001001110010110011100100110100011001100111110101100001000010010111101101011101010000100100111100 "
#444
b1100010011100101100111001001101000110011001111101011000010000100101111011010111010100001001001111001 "
#445
b110111100111101101101111100001001000101010011000000100100111011110101111110100010101100011010 "
#446
b1101111001111011011011111000010010001010100110000001001001110111101011111101000101011000110101 "
#447
b11011110011110110110111110000100100010101001100000010010011101111010111111010001010110001101010 "
#448
b110111100111101101101111100001001000101010011000000100100111011110101111110100010101100011010100 "
#449
b1101111001111011011011111000010010001010100110000001001001110111101011111101000101011000110101001 "
#450
b11011110011110110110111110000100100010101001100000010010011101111010111111010001010110001101010010 "
#451
b110111100111101101101111100001001000101010011000000100100111011110101111110100010101100011010100101 "
#452
b1101111001111011011011111000010010001010100110000001001001110111101011111101000101011000110101001010 "
#453
b11010010000001000100001110001001111010010110000111010111000010110010111010000001010001010101111101 "
#454
b110100100000010001000011100010011110100101100001110101110000101100101110100000010100010101011111011 "
#455
b1101001000000100010000111000100111101001011000011101011100001011001011101000000101000101010111110111 "
#456
b10110001111111010010001111100010111101101010111111111100111011110010010000000001101010010000000110 "
#457
b101100011111110100100011111000101111011010101111111111001110111100100100000000011010100100000001100 "
#458
b1011000111111101001000111110001011110110101011111111110011101111001001000000000110101001000000011001 "
#459
b1110101110001101100010000010111010000010001101111010100011110011110111000000000110110010111111011010 "
#460
b101111101101100110111111011011001101011000001110000000011001010001011000000000110000101000001011100 "
#461
b1011111011011001101111110110110011010110000011100000000110010100010110000000001100001010000010111000 "
#462
b1111010111000100101100010011001011000011011101000101001000000101001001000000010011110100111010011000 "
#463
b110001111111110101011011000111011101001100000001111010100100111110111000000101100001001001011011000 "
#464
b1100011111111101010110110001110111010011000000011110101001001111101110000001011000010010010110110001 "
#465
b11110001101011110011101000011001001011010111000010110110010111001000010111011000100010010001010 "
#466
b111100011010111100111010000110010010110101110000101101100101110010000101110110001000100100010101 "
#467
b1111000110101111001110100001100100101101011100001011011001011100100001011101100010001001000101011 "
#468
b11110001101011110011101000011001001011010111000010110110010111001000010111011000100010010001010110 "
#469
b111100011010111100111010000110010010110101110000101101100101110010000101110110001000100100010101100 "
#470
b1111000110101111001110100001100100101101011100001011011001011100100001011101100010001001000101011000 "
#471
b110101100101001101110111101100100110101100010010011110110010100100111111011001111110010110101011000 "
#472
b1101011001010011011101111011001001101011000100100111101100101001001111110110011111100101101010110001 "
#473
b10010011010001001000001000111110111001010011001010011101111111111010101100110100101011101010001011 "
#474
b100100110100010010000010001111101110010100110010100111011111111110101011001101001010111010100010110 "
#475
b1001001101000100100000100011111011100101001100101001110111111111101010110011010010101110101000101101 "
#476
b1010111011111110110010111001011010100101000011010110101011010010110000100110101110111101101110110011 "
#477
b1101010110001010010110001100011000100101011100101000010010001000000100001101010110011011100010001110 "
#478
b10001101100011011111100110011100100101100011010101100000111101101101011010100111010111111011110101 "
#479
b100011011000110111111001100111001001011000110101011000001111011011010110101001110101111110111101010 "
#480
b1000110110001101111110011001110010010110001101010110000011110110110101101010011101011111101111010100 "
#481
b1001001101101100001111001101001001000011000000101001000011000000001110010100110001011111100001000000 "
#482
b1010111010101111101101100100111111101001011011010111000010101101111001101001101001011111111101101001 "
#483
b1101010100101000101000110111010010111101101100101011000001110110010110010011011001011111000100111010 "
#484
b10001000100110100010010000001000010100000011010011000111000001001001100110111001011110110110011100 "
#485
b100010001001101000100100000010000101000000110100110001110000010010011001101110010111101101100111000 "
#486
b1000100010011010001001000000100001010000001101001100011100000100100110011011100101111011011001110001 "
#487
b1001100101000011100001111111101111001111000000011101111100100100101001110111000000010110001100001010 "
#488
b1011101011110000110000000001110011110001011010111110111101100100110110101110001011001100100111111101 "
#489
b1111110110010110010011111101001010001101101111111000111111100100001000011100011101111001110000010011 "
#490
b111001101011011010100000100111001110100000101110100111011100101110101111000110000010011011111001111 "
#491
b1110011010110110101000001001110011101000001011101001110111001011101011110001100000100110111110011110 "
#492
b100010100011010100011101101001010111111001101010110101010111010110010100011001010101101000011010101 "
#493
b1000101000110101000111011010010101111110011010101101010101110101100101000110010101011010000110101011 "
#494
b1001110000011101111101001010000110010011101111011111101111000110101111001100100001010100110010111110 "
#495
b1011000001001100001001101010100001001000000100111010011010100000111011011001001001001001011010010100 "
#496
b1110100011101111100000101011101111111111010011110001110001101100010011110010011001110010001011000000 "
#497
b101100110101000110010101001110010010001111101100110100111110101000010100100111000000100101001101000 "
#498
b1011001101010001100101010011100100100011111011001101001111101010000101001001110000001001010011010000 "
#499
b1110111011010100111001011001100100101000101100011111011011111001101111010011101011110010011001001000 "
#500
b101010111011110000001001101100100111110000010111011110011011110111011100111011100000100001101111000 "
#501
b1010101110111100000010011011001001111100000101110111100110111101110111001110111000001000011011110000 "
#502
b1101111100001111110111001000111110010111010001101010001001010110001011011101111011110000001000001001 "
#503
b11011001101000011101101111010001000001111001010001010110000001110011111011111100000000101111111010 "
#504
b110110011010000111011011110100010000011110010100010101100000011100111110111111000000001011111110100 "
#505
b1101100110100001110110111101000100000111100101000101011000000111001111101111110000000010111111101000 "
#506
b11101100110100011110000100100101100000010000001111110100100011111010011111101011100101000000111001 "
#507
b111011001101000111100001001001011000000100000011111101001000111110100111111010111001010000001110011 "
#508
b1110110011010001111000010010010110000001000000111111010010001111101001111110101110010100000011100111 "
#509
b101000111010100000011011010000001101101011011111011100000110010110110111101010111001000111000100110 "
#510
b1010001110101000000110110100000011011010110111110111000001100101101101111010101110010001110001001101 "
#511
b1100111100100111111110010110101011011010110101101011000111100110111110110101010111000011011101110011 "
#512
b1011000111000001111010011111011011010110001010011001011100000011000101010100101100110000100001110 "
#513
b10110001110000011110100111110110110101100010100110010111000000110001010101001011001100001000011101 "
#514
b101100011100000111101001111101101101011000101001100101110000001100010101010010110011000010000111010 "
#515
b1011000111000001111010011111011011010110001010011001011100000011000101010100101100110000100001110100 "
#516
b1110101111110100000111000000011011000011001110110111111100101011101111101001010010000001111100000000 "
#517
b101111110011111111101111110011011101001000111101010111101111010111010010010101111100011000111101001 "
#518
b1011111100111111111011111100110111010010001111010101111011110101110100100101011111000110001111010011 "
#519
b1111011000001000000100000111000011001011000100101110110011000110001100001010110101101100100001001110 "
#520
b110010001100111111011110000101011111001010011011000100010100001111101010101100000111001111101110100 "
#521
b1100100011001111110111100001010111110010100110110001000101000011111010101011000001110011111011101001 "
#522
b1100111101000011100111100000010001010010111100111001110101010010000010110001000000111001000111010 "
#523
b11001111010000111001111000000100010100101111001110011101010100100000101100010000001110010001110100 "
#524
b110011110100001110011110000001000101001011110011100111010101001000001011000100000011100100011101000 "
#525
b1100111101000011100111100000010001010010111100111001110101010010000010110001000000111001000111010000 "
#526
b1011011110000111100111110001111001010100011110110101110001001100000100010001010010010110001001001 "
#527
b10110111100001111001111100011110010101000111101101011100010011000001000100010100100101100010010011 "
#528
b101101111000011110011111000111100101010001111011010111000100110000010001000101001001011000100100111 "
#529
b1011011110000111100111110001111001010100011110110101110001001100000100010001010010010110001001001111 "
#530
b1110011101111000111100011101011111000111100111101110100110110101101101100010101111001100101101110110 "
#531
b100011010000110001011000100010011100000010101011000001001000110111110000101010101111001100100000100 "
#532
b1000110100001100010110001000100111000000101010110000010010001101111100001010101011110011001000001001 "
#533
b1001001001101111011111101111100011101110001111100101100000110110011101010101011100000110101111111010 "
#534
b1010110010101001001100100001101010110011000101001110000101000001011111101010110011101101100000011100 "
#535
b1101000100100101101010111101111000001001010000011001001110101111011010010101101100111011111111010000 "
#536
b10101000111100100110000101011101111101111010110111011001110011010001101011010010010111000001001001 "
#537
b101010001111001001100001010111011111011110101101110110011100110100011010110100100101110000010010010 "
#538
b1010100011110010011000010101110111110111101011011101100111001101000110101101001001011100000100100100 "
#539
b1101100110010011000011010101000010000000001100111110001010110111101000011010011001011000110110100001 "
#540
b11101101010001110101010100101001101111000011111001010001000010110101110100111001010001010010101011 "
#541
b111011010100011101010101001010011011110000111110010100010000101101011101001110010100010100101010110 "
#542
b1110110101000111010101010010100110111100001111100101000100001011010111010011100101000101001010101101 "
#543
b101001011111001011001011011100000010111000101001111001100111011001011100111000001101010101010110011 "
#544
b1010010111110010110010110111000000101110001010011110011001110110010111001110000011010101010101100110 "
#545
b1100001110010010010110010000101100110011001110111001110111000001001011011100001101001010010100100100 "
#546
b111101010011011111011111110100001001000111110110101010101111110011111000010001110100010110100000 "
#547
b1111010100110111110111111101000010010001111101101010101011111100111110000100011101000101101000000 "
#548
b11110101001101111101111111010000100100011111011010101010111111001111100001000111010001011010000000 "
#549
b111101010011011111011111110100001001000111110110101010101111110011111000010001110100010110100000000 "
#550
b1111010100110111110111111101000010010001111101101010101011111100111110000100011101000101101000000001 "
#551
b110001000011000011100000100101001001100100001010000010011010100011001001000110001101011101111101010 "
#552
b1100010000110000111000001001010010011001000010100000100110101000110010010001100011010111011111010100 "
#553
b10110000011101100001001011101011111000100001001111100000001100011001101001110000001000000 "
#554
b101100000111011000010010111010111110001000010011111000000011000110011010011100000010000000 "
#555
b1011000001110110000100101110101111100010000100111110000000110001100110100111000000100000001 "
#556
b10110000011101100001001011101011111000100001001111100000001100011001101001110000001000000010 "
#557
b101100000111011000010010111010111110001000010011111000000011000110011010011100000010000000101 "
#558
b1011000001110110000100101110101111100010000100111110000000110001100110100111000000100000001010 "
#559
b10110000011101100001001011101011111000100001001111100000001100011001101001110000001000000010100 "
#560
b101100000111011000010010111010111110001000010011111000000011000110011010011100000010000000101000 "
#561
b1011000001110110000100101110101111100010000100111110000000110001100110100111000000100000001010001 "
#562
b10110000011101100001001011101011111000100001001111100000001100011001101001110000001000000010100010 "
#563
b101100000111011000010010111010111110001000010011111000000011000110011010011100000010000000101000100 "
#564
b1011000001110110000100101110101111100010000100111110000000110001100110100111000000100000001010001000 "
#565
b1110100010011011111010100011110010101011010011111001000101001110101000001110001010100000101011111001 "
#566
b101100101000000000110111001001000111001111101110111001110110000110101011100011110100001101000011010 "
#567
b1011001010000000001101110010010001110011111011101110011101100001101010111000111101000011010000110101 "
#568
b1110110101110111101000011010001110001000101101011001111111101110110000110001110001100110011110000011 "
#569
b101001010011000100011001010110001111110000000110110111011110000000100100011101000101100000011101110 "
#570
b1010010100110001000110010101100011111100000001101101110111100000001001000111010001011000000111011101 "
#571
b1100001000010101111111010101101010010111011001011110101011101101110111001110101001010000110001010010 "
#572
b110001011100001101010101111001000001101000111000010011110110001011011101011001000001011101001101 "
#573
b1100010111000011010101011110010000011010001110000100111101100010110111010110010000010111010011011 "
#574
b11000101110000110101010111100100000110100011100001001111011000101101110101100100000101110100110110 "
#575
b110001011100001101010101111001000001101000111000010011110110001011011101011001000001011101001101100 "
#576
b1100010111000011010101011110010000011010001110000100111101100010110111010110010000010111010011011001 "
#577
b1111110001011001000010001101011011000110001100111111101000001011101100101011001110011001011010 "
#578
b11111100010110010000100011010110110001100011001111111010000010111011001010110011100110010110100 "
#579
b111111000101100100001000110101101100011000110011111110100000101110110010101100111001100101101001 "
#580
b1111110001011001000010001101011011000110001100111111101000001011101100101011001110011001011010010 "
#581
b11111100010110010000100011010110110001100011001111111010000010111011001010110011100110010110100101 "
#582
b111111000101100100001000110101101100011000110011111110100000101110110010101100111001100101101001011 "
#583
b1111110001011001000010001101011011000110001100111111101000001011101100101011001110011001011010010110 "
#584
b111000011000101110111100100011011100011000011111010010100111010111100010110010111010010001011000101 "
#585
b1110000110001011101111001000110111000110000111110100101001110101111000101100101110100100010110001011 "
#586
b100101101100000101101101111000011100011010101101100010111000110010100011001010110101000010011111110 "
#587
b1001011011000001011011011110000111000110101011011000101110001100101000110010101101010000100111111100 "
#588
b1010010111110101000101000010100011100010001100110100011000110100110100100101010001000001110000010001 "
#589
b1100001110011101111001111011101010101011000011101101110101000100001100001010101001100011011111001011 "
#590
b111101001100000000001001111000111001011101011110101110100101111101010101011000100110000001111110 "
#591
b1111010011000000000010011110001110010111010111101011101001011111010101010110001001100000011111101 "
#592
b11110100110000000000100111100011100101110101111010111010010111110101010101100010011000000111111010 "
#593
b111101001100000000001001111000111001011101011110101110100101111101010101011000100110000001111110101 "
