.Xil/Vivado-4512-i83pc38/hw_ila_data_1/zip_work/waveform.vcd
$date
        2024-Jul-05 14:22:08
$end
$version
        Vivado v2022.2 (64-bit)
$end
$timescale
        1ps
$end
$scope module dut $end
$var reg 3 " design_1_i/fulltopHDC_0/U0/HDCOTFGEn/cls/CST/hv [2:0] $end
$var reg 128 % \design_1_i/fulltopHDC_0/U0/HDCOTFGEn/cls/CST/countSimArr[0].comp/compArr[1].comp/class [127:0] $end
$var reg 1 G" \design_1_i/fulltopHDC_0/U0/HDCOTFGEn/cls/CST/countSimArr[0].comp/compArr[1].comp/hv $end
$var reg 100 H" design_1_i/fulltopHDC_0/U0/HDCOTFGEn/BV [999:900] $end
$var reg 336 N# design_1_i/fulltopHDC_0/U0/HDCOTFGEn/BVCon [335:0] $end
$var reg 336 &' design_1_i/fulltopHDC_0/U0/HDCOTFGEn/QHV [335:0] $end
$var reg 30 \* u_ila_0_idLevelOutCon [29:0] $end
$var reg 1 z* design_1_i/fulltopHDC_0/U0/HDCOTFGEn/idLevelOutCon_1 $end
$var reg 22 {* \PROBE_-1[21_0] [21:0] $end
$var reg 1 3+ design_1_i/fulltopHDC_0/U0/HDCOTFGEn/idLevelOutCon_2 $end
$var reg 20 4+ \PROBE_-1[19_0] [19:0] $end
$var reg 1 H+ design_1_i/fulltopHDC_0/U0/HDCOTFGEn/idLevelOutCon_3 $end
$var reg 13 I+ u_ila_0_idLevelOutCon [87:75] $end
$var reg 1 V+ u_ila_0_idLevelOutCon $end
$var reg 3 W+ u_ila_0_idLevelOutCon [91:89] $end
$var reg 1 Z+ u_ila_0_idLevelOutCon $end
$var reg 1 [+ \u_ila_0_idLevelOutCon[93]_1 $end
$var reg 2 \+ u_ila_0_idLevelOutCon [17:16] $end
$var reg 3 ^+ u_ila_0_idLevelOutCon [98:96] $end
$var reg 2 a+ u_ila_0_idLevelOutCon [28:27] $end
$var reg 14 c+ \PROBE_-1[13_0] [13:0] $end
$var reg 1 q+ design_1_i/fulltopHDC_0/U0/HDCOTFGEn/idLevelOutCon_4 $end
$var reg 4 r+ \PROBE_-1[3_0] [3:0] $end
$var reg 3 v+ \PROBE_-1[2_0] [2:0] $end
$var reg 1 y+ \u_ila_0_idLevelOutCon[123]_1 $end
$var reg 1 z+ \u_ila_0_idLevelOutCon[38]_1 $end
$var reg 6 {+ u_ila_0_idLevelOutCon [130:125] $end
$var reg 3 #, u_ila_0_idLevelOutCon [45:43] $end
$var reg 1 &, u_ila_0_idLevelOutCon $end
$var reg 3 ', u_ila_0_idLevelOutCon [49:47] $end
$var reg 1 *, design_1_i/fulltopHDC_0/U0/HDCOTFGEn/idLevelOutCon_5 $end
$var reg 4 +, u_ila_0_idLevelOutCon [142:139] $end
$var reg 1 /, u_ila_0_idLevelOutCon $end
$var reg 1 0, \u_ila_0_idLevelOutCon[144]_1 $end
$var reg 1 1, \u_ila_0_idLevelOutCon[58]_1 $end
$var reg 1 2, \u_ila_0_idLevelOutCon[146]_1 $end
$var reg 1 3, u_ila_0_idLevelOutCon $end
$var reg 1 4, \u_ila_0_idLevelOutCon[66]_1 $end
$var reg 2 5, \PROBE_-1[1_0] [1:0] $end
$var reg 1 7, u_ila_0_idLevelOutCon $end
$var reg 5 8, \PROBE_-1[4_0] [4:0] $end
$var reg 1 =, \u_ila_0_idLevelOutCon[73]_2 $end
$var reg 1 >, design_1_i/fulltopHDC_0/U0/HDCOTFGEn/idLevelOutCon_6 $end
$var reg 2 ?, \PROBE_-1[1_0] [1:0] $end
$var reg 8 A, \PROBE_-1[7_0] [7:0] $end
$var reg 2 I, u_ila_0_idLevelOutCon [84:83] $end
$var reg 1 K, u_ila_0_idLevelOutCon $end
$var reg 2 L, \PROBE_-1[1_0] [1:0] $end
$var reg 1 N, u_ila_0_idLevelOutCon $end
$var reg 2 O, \PROBE_-1[1_0] [1:0] $end
$var reg 1 Q, \u_ila_0_idLevelOutCon[177]_1 $end
$var reg 1 R, u_ila_0_idLevelOutCon $end
$var reg 2 S, u_ila_0_idLevelOutCon [180:179] $end
$var reg 1 U, u_ila_0_idLevelOutCon $end
$var reg 1 V, u_ila_0_idLevelOutCon $end
$var reg 1 W, u_ila_0_idLevelOutCon $end
$var reg 2 X, \PROBE_-1[1_0] [1:0] $end
$var reg 1 Z, u_ila_0_idLevelOutCon $end
$var reg 5 [, u_ila_0_idLevelOutCon [191:187] $end
$var reg 1 `, design_1_i/fulltopHDC_0/U0/HDCOTFGEn/idLevelOutCon_7 $end
$var reg 4 a, u_ila_0_idLevelOutCon [119:116] $end
$var reg 4 e, u_ila_0_idLevelOutCon [35:32] $end
$var reg 1 i, \u_ila_0_idLevelOutCon[37]_1 $end
$var reg 6 j, u_ila_0_idLevelOutCon [207:202] $end
$var reg 1 p, u_ila_0_idLevelOutCon $end
$var reg 1 q, design_1_i/fulltopHDC_0/U0/HDCOTFGEn/idLevelOutCon_8 $end
$var reg 3 r, u_ila_0_idLevelOutCon [141:139] $end
$var reg 4 u, u_ila_0_idLevelOutCon [216:213] $end
$var reg 1 y, u_ila_0_idLevelOutCon $end
$var reg 3 z, u_ila_0_idLevelOutCon [220:218] $end
$var reg 1 }, u_ila_0_idLevelOutCon $end
$var reg 2 ~, u_ila_0_idLevelOutCon [153:152] $end
$var reg 5 "- \PROBE_-1[4_0] [4:0] $end
$var reg 1 '- u_ila_0_idLevelOutCon $end
$var reg 1 (- design_1_i/fulltopHDC_0/U0/HDCOTFGEn/idLevelOutCon_9 $end
$var reg 2 )- \PROBE_-1[1_0] [1:0] $end
$var reg 3 +- u_ila_0_idLevelOutCon [166:164] $end
$var reg 1 .- u_ila_0_idLevelOutCon $end
$var reg 2 /- \PROBE_-1[1_0] [1:0] $end
$var reg 1 1- u_ila_0_idLevelOutCon $end
$var reg 1 2- u_ila_0_idLevelOutCon $end
$var reg 3 3- \PROBE_-1[2_0] [2:0] $end
$var reg 1 6- u_ila_0_idLevelOutCon $end
$var reg 1 7- u_ila_0_idLevelOutCon $end
$var reg 3 8- u_ila_0_idLevelOutCon [81:79] $end
$var reg 3 ;- u_ila_0_idLevelOutCon [251:249] $end
$var reg 2 >- u_ila_0_idLevelOutCon [83:82] $end
$var reg 1 @- u_ila_0_idLevelOutCon $end
$var reg 1 A- u_ila_0_idLevelOutCon $end
$var reg 1 B- u_ila_0_idLevelOutCon $end
$var reg 1 C- u_ila_0_idLevelOutCon $end
$var reg 1 D- u_ila_0_idLevelOutCon $end
$var reg 1 E- u_ila_0_idLevelOutCon $end
$var reg 1 F- u_ila_0_idLevelOutCon $end
$var reg 2 G- u_ila_0_idLevelOutCon [13:12] $end
$var reg 1 I- u_ila_0_idLevelOutCon $end
$var reg 2 J- u_ila_0_idLevelOutCon [16:15] $end
$var reg 1 L- u_ila_0_idLevelOutCon $end
$var reg 1 M- u_ila_0_idLevelOutCon $end
$var reg 1 N- u_ila_0_idLevelOutCon $end
$var reg 1 O- u_ila_0_idLevelOutCon $end
$var reg 2 P- u_ila_0_idLevelOutCon [19:18] $end
$var reg 1 R- u_ila_0_idLevelOutCon $end
$var reg 1 S- u_ila_0_idLevelOutCon $end
$var reg 1 T- u_ila_0_idLevelOutCon $end
$var reg 1 U- u_ila_0_idLevelOutCon $end
$var reg 2 V- u_ila_0_idLevelOutCon [277:276] $end
$var reg 3 X- u_ila_0_idLevelOutCon [109:107] $end
$var reg 2 [- u_ila_0_idLevelOutCon [190:189] $end
$var reg 2 ]- u_ila_0_idLevelOutCon [114:113] $end
$var reg 1 _- design_1_i/fulltopHDC_0/U0/HDCOTFGEn/idLevelOutCon_10 $end
$var reg 2 `- u_ila_0_idLevelOutCon [117:116] $end
$var reg 1 b- u_ila_0_idLevelOutCon $end
$var reg 2 c- u_ila_0_idLevelOutCon [37:36] $end
$var reg 1 e- u_ila_0_idLevelOutCon $end
$var reg 1 f- u_ila_0_idLevelOutCon $end
$var reg 1 g- u_ila_0_idLevelOutCon $end
$var reg 2 h- u_ila_0_idLevelOutCon [41:40] $end
$var reg 1 j- u_ila_0_idLevelOutCon $end
$var reg 1 k- u_ila_0_idLevelOutCon $end
$var reg 1 l- u_ila_0_idLevelOutCon $end
$var reg 1 m- u_ila_0_idLevelOutCon $end
$var reg 1 n- u_ila_0_idLevelOutCon $end
$var reg 1 o- u_ila_0_idLevelOutCon $end
$var reg 1 p- u_ila_0_idLevelOutCon $end
$var reg 1 q- design_1_i/fulltopHDC_0/U0/HDCOTFGEn/idLevelOutCon_11 $end
$var reg 1 r- u_ila_0_idLevelOutCon $end
$var reg 1 s- u_ila_0_idLevelOutCon $end
$var reg 1 t- u_ila_0_idLevelOutCon $end
$var reg 3 u- u_ila_0_idLevelOutCon [309:307] $end
$var reg 2 x- u_ila_0_idLevelOutCon [58:57] $end
$var reg 1 z- u_ila_0_idLevelOutCon $end
$var reg 1 {- u_ila_0_idLevelOutCon $end
$var reg 2 |- u_ila_0_idLevelOutCon [219:218] $end
$var reg 1 ~- u_ila_0_idLevelOutCon $end
$var reg 2 !. u_ila_0_idLevelOutCon [225:224] $end
$var reg 1 #. u_ila_0_idLevelOutCon $end
$var reg 1 $. u_ila_0_idLevelOutCon $end
$var reg 1 %. u_ila_0_idLevelOutCon $end
$var reg 4 &. u_ila_0_idLevelOutCon [325:322] $end
$var reg 2 *. u_ila_0_idLevelOutCon [156:155] $end
$var reg 1 ,. design_1_i/fulltopHDC_0/U0/HDCOTFGEn/idLevelOutCon $end
$var reg 2 -. u_ila_0_idLevelOutCon [76:75] $end
$var reg 2 /. u_ila_0_idLevelOutCon [162:161] $end
$var reg 1 1. u_ila_0_idLevelOutCon $end
$var reg 2 2. u_ila_0_idLevelOutCon [168:167] $end
$var reg 1 4. design_1_i/fulltopHDC_0/U0/HDCOTFGEn/doneEncoderToClassifier $end
$var reg 1 5. _TRIGGER $end
$var reg 1 6. _WINDOW $end
$var reg 1 7. _GAP $end
$upscope $end
$enddefinitions $end
#0
$dumpvars
b1 "
b1111111000011101111111011111000000100000000001000100111111100000111011000001110110101000000011111000100001110111110110000111100 %
1G"
b111011000100111101100100000001101100110010001101010010011010010111011001000000111000000111110100111 H"
b1110001100011101110100010000001101100011000110000100101110010011111110111111111001110110010011000110011011011001011011110111001010111100001110010000101110010101000110000101000010110101101010010100111000001011101100100101111111111110000111001111000111101101011010100111100010100111010100011000001111110101111001000101000110010110001101 N#
b111111000000001111001110011000001100001011001110001000100010000001100111011111100010110100110011001000000000001111110111000111101101110110000000011111110000000001100001100110101100010011101011110110111000000000001100111110011111110110000001011011000010101100000100110010000111000000011000111101000000011111000111111011011100000001100111 &'
b0 \*
0z*
b0 {*
03+
b0 4+
0H+
b0 I+
0V+
b0 W+
0Z+
0[+
b0 \+
b0 ^+
b0 a+
b0 c+
0q+
b0 r+
b0 v+
0y+
0z+
b0 {+
b0 #,
0&,
b0 ',
0*,
b0 +,
0/,
00,
01,
02,
03,
04,
b0 5,
07,
b0 8,
0=,
0>,
b0 ?,
b0 A,
b0 I,
0K,
b0 L,
0N,
b0 O,
0Q,
0R,
b0 S,
0U,
0V,
0W,
b0 X,
0Z,
b0 [,
0`,
b0 a,
b0 e,
0i,
b0 j,
0p,
0q,
b0 r,
b0 u,
0y,
b0 z,
0},
b0 ~,
b0 "-
0'-
0(-
b0 )-
b0 +-
0.-
b0 /-
01-
02-
b0 3-
06-
07-
b0 8-
b0 ;-
b0 >-
0@-
0A-
0B-
0C-
0D-
0E-
0F-
b0 G-
0I-
b0 J-
0L-
0M-
0N-
0O-
b0 P-
0R-
0S-
0T-
0U-
b0 V-
b0 X-
b0 [-
b0 ]-
0_-
b0 `-
0b-
b0 c-
0e-
0f-
0g-
b0 h-
0j-
0k-
0l-
0m-
0n-
0o-
0p-
0q-
0r-
0s-
0t-
b0 u-
b0 x-
0z-
0{-
b0 |-
0~-
b0 !.
0#.
0$.
0%.
b0 &.
b0 *.
0,.
b0 -.
b0 /.
01.
b0 2.
04.
05.
16.
07.
$end
#239
b1110110001001111011001000000011011001100100011010100100110100101110110010000001110000001111101001111 H"
b1100011001101010101010100000011011000110001100011000011110100111111101011101110011100101100010000110110110100010110110100110111101111000011110101001011100101010001100001110101001101100001100101011110000000111011001011111111111010110001111010110001111011010110101001111001100101110101001110011111111111011110110001000100100101100010111 N#
#240
b101000011101001000001111110011011110110011100101100001001100110001001100000010111100011000101110111 H"
b11000111110010101011101000000110000010110111110010001001011111110000010000011100110010010011100000111100111110100001101101101010011100000011111101010010001110101011011010101001111101100010110100100101100101111101111101111001010000110011100000100011011100000000011001010010011010101010010101111111010010100100000001111100000011001100010 N#
#241
b1010000111010010000011111100110111101100111001011000010011001100010011000000101111000110001011101111 H"
b110001010101111011110000000001100001100100011110100010000111011101110100100111101000101101111000010111101101111000011010010010001111000000111111110000100111101010110110101111111110011101100100001011010001111101011011011111010100000110111001001000110110001000001111000100110110001010000100011101010100011001000000011011100000100111001000 N#
#242
b1100101111010011110100000111000010110110101000110101100010110101000011000001010101101100101000110111 H"
b111010100110100110101010000010000101011010011011110101011000001011110011110101110000001010100100110101110011010001010100000100101110010000011101110101100111110100101100010101100001001110011111100101101111001001101011101110011100000111110000111001101001011100011110011111101111011100001001110010101101010001001100111101101000011111111100 N#
#243
b1111111010000011011110000101000000010001011101110000001000111100011000010100000111001101110000111 H"
b110101001000001101010110000101001101111100110001001010100100100101111101010001000101000000010101101011101110000011001000101001101100100000011011011011100011001000011001001011111111111100110000111000010110110010001010011101001100000101100011111011010111110101011111101001011100010000010011101101011110000011010101100001110001101110011100 N#
#244
b11111110100000110111100001010000000100010111011100000010001111000110000101000001110011011100001110 H"
b110011010000011011100110001010011011111011000000010100011001001010001000100000101010000101100111000111111100010110010000011011101001010001110100011111000010010010110010111000111111101101100001110000100101000110010100101110011000000001000110010110101111101011110111010000101000100000000111011010011101110110101111010011001001011000011101 N#
#245
b111111101000001101111000010100000001000101110111000000100011110001100001010000011100110111000011101 H"
b101111100001100111000100010100110111111101000010111001010010110110010011100001010000000011001010001111011010111100100000111111001010100011101010010010000000100101100111011111111011011000011011100001001110001100100001001001110100000010001101101101011110000110101111100001010000000000001110110110111011001101011110100100110010100100111110 N#
#246
b1111111010000011011110000101000000010001011101110000001000111100011000010100000111001101110000111011 H"
b11111000010011110001000101000001111110001000101100011110111101111100101100000100000001010011000001110010111101001000001110110011101000111010100100000000001001001001100111111111011110111110111000000011100101011001010010011101100100110011010010010111101010101111110010010111001100000011101101100110110001000111001011101100111011001111101 N#
#247
b111010101110001001111110100101101001101100001100101010101010101010101101000000101111011011110011111 H"
b101111001001101100010011010000111000100001101111100110101001001111100001111001100001001100101000011110000111110011100011001100001010011110001011111000101110110001011000011000001110001111110000110001110001000111000101100011101101100110110111100101111110111111010101110011100001101000111011010001001001100000111010110001101101100110010111 N#
#248
b1110101011100010011111101001011010011011000011001010101010101010101011010000001011110110111100111110 H"
b10111011011001001101100100000010000001000111101011101010000011110110001110011100010010100011000101110101101110111000110010000010100111100010111011001011001100000110010110001011100000010100001100001101010001110001011010110011011001111101111101011111101100110100001100101001010010001010110100000110010110001110101100111010011001100001010 N#
#249
b101110110110011001100101100011001011001011100010000010001111000110011100000011100001101000110010100 H"
b111110011011010010011001000000000110010000011100011011010110001101001001011101000001111001101101010111110001011111101101000000011001101000001100101110011111100000100110101110000000110101000101110010010100111101001011111100000010011111011101010111111111000000000001001100000110001010101101001011100000110010100011000010000111011001010000 N#
#250
b1011101101100110011001011000110010110010111000100000100011110001100111000000111000011010001100101001 H"
b100100010110110100111010000001001101110001011000100111001110111001010000111000100111110011011010100111000010101111011011000000000011000000011001010100111011000011001111111111000001101001000010100110100101001010011111101000000100011100111010100111111110011000001000001000001101010101111011010110000001100101000110010000101110100110100101 N#
#251
b1111111010111011000001001111001000001010101011000100000011001110101011000001111011010100100110111011 H"
b11000101001101000110100000011111101111011110111101110101001100011101001101011101010110011100101011100001101111111010110100000101110000000010010111001011010100111011110110110011011110101000010111110001010000101101010000100111100010001110110000111111000100100110010000110010001100011110111100100100110011011000000111101010110011100001010 N#
#252
b111010100000001110001100000111101111010001100001101000010110000110011000011111101001001110010011110 H"
b101000011111000001101000000111011101110101101001101100100111010111101001101101110000111110010010110010010011011111001101100001101100000000000111101010011101101111111110001001000010001000000011001101010000111010001001011000001000100001101110100111110100000101001111001000111000101111001111000011101000000111001001110110001101101101010100 N#
#253
b1110101000000011100011000001111011110100011000011010000101100001100110000111111010010011100100111100 H"
b1001011110010011011010001111111010111001110001001000101100101101010001011001100001111000100001111110100110111110011011000011111000010001001111011100111011011101111110011001101100001010010111011000101101110100010010110000010001100001011101000111101001010010111101000001111000011110011111000100110000001100010011111000010001011110100001 N#
#254
b101110001110000110101111101011010000111101010110001001111101110101001001111111111000111110110010001 H"
b10011000100110111100011111110010111001100100100000011111101011011000001011100110101101011111100101000101001101010110100111010000110010111100100101011010011000111111110010001100110110111001000010011011101011110100100000010111001000111001100111010110111000011000000101100011010100011111000001000100011001101011101100100011111100000011 N#
#255
b1011100011100001101011111010110100001111010101100010011111011101010010011111111110001111101100100010 H"
b11101110001011100110010111111100100111001001001000001111101110101000000110111001001011111111111000010101000011010101100001110011001110100111001000110110000110001111111001000110101101100111011000110110111010111101101000100101110110001110011001110101101101000110001011011001111001000011111000000001001100001010011001101101111111000100011 N#
#256
b1111100110110100100100001011000101110001110001000001111010010111000001111111110111111111100110101100 H"
b110010100110111000100111111111001110101001010110110011111101011010111011110100110011100111100110011111011000010100111000111100111011111000010010011001001001000010111101110011010011101010100000111110100010001110001011001001101001101011100101111101011111010100000010100010010100111000111110001001110110110001101110010011111110110100101110 N#
#257
b111101100011110111011101000100110001100111000000110110000000011100110111111100100011111110010110000 H"
b100101000001110000000111111111011011000010101011000110011110100101011101010011000110010111011100111100111010001000010000010001010111100000000110001110111110100110111010100110011010100111001110001110001000001111000011000010100011111111001001011010111011110100100101010010110011011001011100011011101000000000010000101101111110101000011000 N#
#258
b1111011000111101110111010001001100011001110000001101100000000111001101111111001000111111100101100001 H"
b1011001011110001000111111110010110010101110110011100011101101001111000100110001000100111110001100011110100000000100001101010010111000001001110010001111101001111110101101010111100000001010100011100011000101110001010010000000011111100010010011101110110101001000010100111100111110010111000110101110000010010100001011101010101000100111101 N#
#259
b110010000001100011101011100110101011100111010011110000100100011111110111110011010011111110100101010 H"
b110010011110011001111111100101011111000001000011001101101100011111001010110110000010110110011000101100000100000100011111100110110010011111110010011010110111110101010110001001101100001110110001011111001001111000001110001110111110000100110110011101001011111101100001001011101101101010000100001100101000110001110100010100001001100011111 N#
#260
b1100100000011000111010111001101010111001110100111100001001000111111101111100110100111111101001010101 H"
b101001111110111010111111001110111100011110010100011011011000110100010001101000100101000101110011011100001010001000110110001011100110111111110100110101001111101010101101000010111010110110100010111110010101100001011110010101011100011001101101111010010101111111000000010100011111010100001000000001010101110011001010001100010011100011011 N#
#261
b1100001000110000110001101111000011100110011111101010110100010011110111001100010011111101101000011 H"
b11011011111111101101110011101000001101000011100110010000111111111100000000001100000100001000101111101010000011101100001010110001111110011111011001111011011011101010011010010011011100110111011100101101101001000010100000100011000110011001111110100000010011110000000011011100111101100010001011110001001101111010101001101111101101010110 N#
#262
b11000010001100001100011011110000111001100111111010101101000100111101110011000100111111011010000110 H"
b10110110111101111010001100110110000001010000111011101010011111101101010100000011000000001010101010101010110000111011000011101011011111101111110011111110010110101010100011111000111110101100110111011010011000000001001000101000010001100110010011101000001111110101011010100111000011011100101010100000011111001110101000101011101011110000101 N#
#263
b110000100011000011000110111100001110011001111110101011010001001111011100110001001111110110100001101 H"
b100100100110001110100011001100000000011110101110101011100111111010100101100000010000000111100010100000101100001110110001111010100111111011111110010111100101101010101000011001000110100101000100110110100110010010010110011011000000110001100101010010000011100101110110111011111001010111101011101000100110110001101110011000111010101000101111 N#
#264
b1100001000110000110001101111000011100110011111101010110100010011110111001100010011111101101000011011 H"
b100100011101000110011000000000110110011111010110101101110101101001100000000000001011001001011011011010001101100010111101100111110110111100001011001011010111010000110101001001010011000001101101001100100110100000110010000001001001001010100100000110010011100100100111100010101111010111010011101100000011011100110001011111010101011011 N#
#265
b110000010110010000100000101010100011100101010000101100001010001011011000101100011011101111011110 H"
b1100101010000100110001000111100111111010001100001111111010101001111000100101001110001110101110011110111010100100011011001111101101011010001010111010001111100010000000100111010101000100101001011101011100010100110100110110110000010110101000001000111011101001011011010111010110101111101100111100110101110101111100111101101111110011 N#
#266
b1100000101100100001000001010101000111001010100001011000010100010110110001011000110111011110111101 H"
b10000000100000001100010101110001111010100011001111101110101010001110011101010010001011001000100011101110101001001111110101111011010110110111001110100011101000110100010001011111010010000010010111110011000100001101000101101000000101100011000010000101110010010110100111110101101011110011000011001001011101111111111010011011111000010 N#
#267
b11000001011001000010000010101010001110010101000010110000101000101101100010110001101110111101111010 H"
b1001101001011000001001000101011101000101101000110011011001001000110011100101010100100110111110000000011011111010010010110101010110110101101101110111101100111010001101100010011110100010100001100101111000010011000111010000011010100001011001111000100000000101000110111001110101111010111101110000110010110111011111111100001110111110100101 N#
#268
b110000010110010000100000101010100011100101010000101100001010001011011000101100011011101111011110101 H"
b10010010011100000010010001011111010011011010001110111110000010011010111101010001101000101110000000010110111110100100100100010000101111010011001000011011001110110011001000101110001000000010011001001111100010100000110110001110001001000110010011001000001000010000111110011110010110101011011100000100100101110111011101100010111111101000011 N#
#269
b1100000101100100001000001010101000111001010100001011000010100010110110001011000110111011110111101011 H"
b100100101111010001101100010110010100100110000001101111110000100100101111110100111010000111101100011111101111101001001001000100100011100100110010101110110111101100110010100010001111011000101111010011111000001000001101110011100010010011100101010010000011001100100101100101100101001010110110000001101001011111110111001100101101111110001110 N#
#270
b101010111111100011101011111100011101110010010011000001101000001001010110000110010111010000111110 H"
b11001111011110010011000101100101111000100000101111111100101111010000101010001010001010110001000100101010111110011110011100001010111001001000101001001000111111010100100001100001010010111011000010100111000110011001110100110110100001111001000001100000011001100101011001101010001011101101101001011010110111100100010000001010010101101111001 N#
#271
b1010101111111000111010111111000111011100100100110000011010000010010101100001100101110100001111100 H"
b101011111111100100110001011000011110000000101001101110001011010110101000000000100110100101010001010000101111110111100110001010100110010011001010011110001011110111001010111101010101111100100000101011111001000110010101001100101000111100010001110000000111010000111100001000111010111011111010010111001100101011000100010000100111011011111010 N#
#272
b10101011111110001110101111110001110111001001001100000110100000100101011000011001011101000011111000 H"
b10111110110001001101000110000011100001001110011011100000100001110100010000011001001000010100010101001111101101111001101010101111100110111010110010000010111101100010101111100000110110111011001010111110010001100100010001001010001010010100010100000001110110001010000010001110100110111010100101100111001000110001000100001100100100011110101 N#
#273
b101010111111100011101011111100011101110010010011000001101000001001010110000110010111010000111110001 H"
b110110100101010011010011100001111000000000100110111001011010111100010100100110010110000101000101000001111001001110011010100011010001101111101100001000101011011010101001110100001001101000111011101101100000101001001100000110100110001101000101001000011100111011000010110011110000101110101001011000110010111110010101000111101011010111100011 N#
#274
b1010101111111000111010111111000111011100100100110000011010000010010101100001100101110100001111100010 H"
b110101100011100110100101000011010000010001101111110011000111111001001001101100101000000110000110011001010000001100110100000110111011001110011000110001010110110101010011001001111011010111100111011001000101110010011100011001001000011000001011011000111000110110101100110101110001111101010011110000000101001100101010011111111100111111101010 N#
#275
b1101111110000110000110000000100011010110010011100101110000101001001110000011000000001000100000101101 H"
b110011000010011100001010000110000111111000111011000111111001100000111011100001110101011000010100111000001000101000001000101101100110001101010011011010000001001011100101110100101111011010010001000011001111100101101001110110100100010000010100111001110100110000011011111101101000010010100111101001001110001000011100100011111010111010111001 N#
#276
b11011101111011111111111111101011000011111101001110100101111111111001000110001011110001111110110011 H"
b101111101000111001011110001100001000110000110010101110110101010011001111111011001011100101111101111010011001110001110000110011001100011011000100101000101010110110001010100100100011010101100100110111011111101000000010101101111000000000101011010011101101110100010100111111010010101101001111011010011001010001110101001101011100110100011111 N#
#277
b110111011110111111111111111010110000111111010011101001011111111110010001100010111100011111101100110 H"
b11111110000110011111110011000110000110000000101011101001010000111101101110110010111001010110011101110010001110011100001100110110000100110001001110001010101101100010101101100100011111101010000101110111111110000000101001011110100000011010110001111011010100001100000111110111101011010111111110110110010010011101010011110011001101000010111 N#
#278
b1101110111101111111111111110101100001111110100111010010111111111100100011000101111000111111011001100 H"
b111111101001110111111110110001000001100000101000111010110100101110011011101100101010010101101011010100100011100111000010000101001001011100010001000110101111011000101001110110100010110010100000011101111111110000001110010011101000001100101100111110110101010010101001101101100010010101011111101100100101110101010100101000111001000000101010 N#
#279
b11001110101000001100000011110101110000110011110001101011010010101101110001010101101111001001110001 H"
b110110110110111110110101100010000100011010010101000100001101101101101101000011010101110010001010100001001111101111100100101010111010111001000000111101110010010010010000100010111001011101010110001000110011110001000001100111100100110001011010111101101110110001011011001101010110100010011111010000001111111001100101001011011011010100010000 N#
#280
b110011101010000011000000111101011100001100111100011010110100101011011100010101011011110010011100011 H"
b100100101100101100101011000101101000101110001010001001001001111001001000000110101011101001011101011000111111011111001000010101101101100011000001110111100000100110100001000100011010101000100101010011101011010010001011001011001001101010110100011011011100100010111110011010100101100100011111100010111110010011001110010110111110111100100100 N#
#281
b1100111010100000110000001111010111000011001111000110101101001010110111000101010110111100100111000110 H"
b10000110000001000010100001010010000011100010110000011010001110011010010001101110011010011110110101011111100111110010001101011111011010110000001101111000001001101000000101000110000001011001011100101011110000100011010010011010111110111101001010110111000000100010100100101001011001000011111000100111101000110011100111101110111111001100101 N#
#282
b1010100110110010011100000000011101001000100001000011110111000001011001010100110011001110001100100 H"
b100001000101000001101000010101100110100011101010100111010101110100111110100011000111110111110101000101110011001101000011111111000110111100100001100110101010111011000000010001011101101110011001111001111000011011100101100011011011101111010000100101110100000101001000001100001101111000111111000011111110111111110101100001100100110110100110 N#
#283
b10101001101100100111000000000111010010001000010000111101110000010110010101001100110011100011001001 H"
b11000010000010011000101010001101010110110111011110011011001000001111000110001011100010100010000001100100001010000111110110000101111001000001001101010001110100000010101101111111000011111011110001110100110111000111010011110111011100100001000011101000000011011010011010010011010001111111000100111101001111101111010011100011111101101000 N#
#284
b101010011011001001110000000001110100100010000100001111011100000101100101010011001100111000110010010 H"
b11111001100010100111001010100111011101101001100101101100100010011011100001110010111000001001000010011001000000100001111101100000011110010000010110110100111101010000101011101111011011000111111100011101101111100000110110010101110110011000011001111010000011110111110110100111111100011111110001000011010111101011110100001101101101111011001 N#
#285
b1010100110110010011100000000011101001000100001000011110111000001011001010100110011001110001100100101 H"
b110110011001101000110010101001010110001011011011011011101000000111101010111110001110001111010100101110110000011000011111011000000111110101000111100101001111010100001000010011111110110010100110000101010111001010000101110101011101000100000110011110100000101100010100111001100110100111111101010000110100101010111001000001010011001010010111 N#
#286
b1101101100010011001011111110010111111110011000000010101010101111010111101001101101111100100110100011 H"
b101101110111010000101111010011001010000110110010000111010110111101101111000100111001000110111101001101101000000001011110010000010111111010101111011010110010001011010001101111001000011111010011111011100110000111010110101011001010100000001110110101000101011101001011100111000110000111111011101000001100000110111010011100000111000001001011 N#
#287
b11111001010001100100000010000010010011101010000000010001110011001010010011010000011001110010101110 H"
b1010100010100000011110100110010010001111100010111110101001001011000100010011010011010001101110000001111000100011011101000000111111100100111110101001001100110101100000111110001000011011100001000110000100011101111000010110100101101000011111000010001110111111111100011000010110100111010110011010011100011110111000110000000111000111110111 N#
#288
b111110010100011001000000100000100100111010100000000100011100110010100100110100000110011100101011100 H"
b11100000100010000111101001101100101000101000111111101010000010100111000100100000110101010010000010001010011010110111010001001010111001000111101011010011001101001000001111010111001111111000010001110001100111011111100111001001011111010111110100100011100100111011000100010101101101110101100110111011000001111110101100110000110001111100011 N#
#289
b1111100101000110010000001000001001001110101000000001000111001100101001001101000001100111001010111001 H"
b100000001001100000110000011010101010010000101101111010000000001010100001001010001101010000101000100010100100111101110100011010101110000001111000011000110111010010000001111111110010110010010100011100011101010101111001100011010111010101111100101000111000001111010000010101010011111101011001101101110001111111101011001100101110011111101010 N#
#290
b111101011111011010011101110111111110010001010000111001010110100110111011010001000101110101010011011 H"
b11001111110000000101000110100110011111000111101000101110110000111101010101110011111110100001101001101000011001010001000010101110100000011010000000101000010000101000000010001011101001101111111001001110110001000100010010010011010100011111011111001110100000010001011101110100100110010110010010000000111111110011110000101010101111010111100 N#
#291
b1111010111110110100111011101111111100100010100001110010101101001101110110100010001011101010100110111 H"
b110011011100010001011011101000100111100000011000001010111110001101100101011110011111101001011110001000100110000100010001100011101000010110100010000010000100001010000000100110111010000000100111010001101000110011001100110101110001101101110110011011101000001101010111001111000000000101000100100000101110101110111000001000100001110001110100 N#
#292
b110001110011010111101000101010010100111110010011001101111111110111000101000101001011010010110000111 H"
b110110010100110011111101010001101000001011010100110101111010001001010010000110111110001110100100000011000100111001000011101111110000111100100110010100100100110101000010101011000000111000010000010000010101000111001000111111010011111001101111111111010101011110001101001010011010100010001000001010111001001110111100011111100010110010000000 N#
#293
b1100011100110101111010001010100101001111100100110011011111111101110001010001010010110100101100001110 H"
b101101100001100110111010100010110000000111001011101010000110110011000100101111011100011001000100001100001001110010000110011111111001111000001110100001001001101010000111111001001101101101110001100010101010011110011101101011100011011001011111011110101011111101110001010110110100100100010001010100010010001101111100111111101111110100001001 N#
#294
b11000011100000111101011100111110000010011100011111011010110000111100010101110001001100111110101 H"
b11100110011100110101000101100111001110110011110100101011110111000011100110111101101011010100011000011011010101101101010111111011100001111111111110111111110101001110111010101111111111100101110110011000111101100110000011110110111000111101011101010011110110000010111011101010000000100010100010000001111010110001110001111100101001111110 N#
